{
  "users": [
    {
      "username": "pvgadmin",
      "password": "123456",
      "email": "pvgasvn.adm@gmail.com",
      "role": "ADMIN",
      "firstName": "Admin",
      "lastName": "PvGasd",
      "active": true,
      "workPlace": "B.QLTN"
    },
    {
      "username": "dn_huy",
      "password": "123456",
      "email": "huy.dn@pvgasd.com.vn",
      "role": "GD",
      "firstName": "Đinh",
      "lastName": "Ngọc Huy",
      "active": true,
      "workPlace": "KTA",
      "workType": "AT"
    },
    {
      "username": "dph_minh",
      "password": "123456",
      "email": "minh.dph@pvgasd.com.vn",
      "role": "GD",
      "firstName": "Đỗ",
      "lastName": "Phạm Hồng Minh",
      "active": true,
      "workPlace": "KTA",
      "workType": "VHBD"
    },
    {
      "username": "nt_trung",
      "password": "123456",
      "email": "trung.nd@pvgasd.com.vn",
      "role": "TPB",
      "active": true,
      "firstName": "Nguyễn",
      "lastName": "Đức Trung",
      "workPlace": "VP"
    },
    {
      "username": "nb_minh",
      "password": "123456",
      "email": "minh.nb@pvgasd.com.vn",
      "role": "NV",
      "active": true,
      "firstName": "Nguyễn",
      "lastName": "Bình Minh",
      "workPlace": "VP"
    },
    {
      "username": "nth_oanh",
      "password": "123456",
      "email": "oanh.nth@pvgasd.com.vn",
      "role": "TPB",
      "active": true,
      "firstName": "Nguyễn",
      "lastName": "Thị Hoàng Oanh",
      "workPlace": "P.KD"
    },
    {
      "username": "nth_thu",
      "password": "123456",
      "email": "thu.nth@pvgasd.com.vn",
      "role": "NV",
      "active": true,
      "firstName": "Nguyễn",
      "lastName": "Thị Hà Thu",
      "workPlace": "P.KD"
    },
    {
      "username": "lt_tuan",
      "password": "123456",
      "email": "tuan.lt@pvgasd.com.vn",
      "role": "TPKT",
      "active": true,
      "firstName": "Lê",
      "lastName": "Thanh Tuấn",
      "workPlace": "P.KT-AT"
    },
    {
      "username": "nt_hai",
      "password": "123456",
      "email": "hai.nt@pvgasd.com.vn",
      "role": "NVKT",
      "active": true,
      "firstName": "Nguyễn",
      "lastName": "Trung Hải",
      "workPlace": "P.KT-AT"
    },
    {
      "username": "ldt_nghia",
      "password": "123456",
      "email": "nghia.ldt@pvgasd.com.vn",
      "role": "NVKT",
      "active": true,
      "firstName": "Lê",
      "lastName": "Đình Trọng Nghĩa",
      "workPlace": "P.KT-AT"
    },
    {
      "username": "lk_thinh",
      "password": "123456",
      "email": "thinh.lk@pvgasd.com.vn",
      "role": "NVKT",
      "active": true,
      "firstName": "Lê",
      "lastName": "Kim Thịnh",
      "workPlace": "P.KT-AT"
    },
    {
      "username": "nv_vinh",
      "password": "123456",
      "email": "vinh.nv@pvgasd.com.vn",
      "role": "NVKT",
      "active": true,
      "firstName": "Ninh",
      "lastName": "Viết Vinh",
      "workPlace": "P.KT-AT"
    },
    {
      "username": "np_thuy",
      "password": "123456",
      "email": "thuy.np@pvgasd.com.vn",
      "role": "TPB",
      "active": true,
      "firstName": "Nguyễn",
      "lastName": "Phương Thúy",
      "workPlace": "P.TC-KT"
    },
    {
      "username": "ld_huy",
      "password": "123456",
      "email": "huy.ld@pvgasd.com.vn",
      "role": "NV",
      "active": true,
      "firstName": "Lê",
      "lastName": "Đức Huy",
      "workPlace": "P.TC-KT"
    },
    {
      "username": "lt_hung",
      "password": "123456",
      "email": "hung.lt@pvgasd.com.vn",
      "role": "TPB",
      "active": true,
      "firstName": "Lê",
      "lastName": "Tiến Hùng",
      "workPlace": "P.TC-NS"
    },
    {
      "username": "nn_y",
      "password": "123456",
      "email": "y.nn@pvgasd.com.vn",
      "role": "NV",
      "active": true,
      "firstName": "Nguyễn",
      "lastName": "Như Ý",
      "workPlace": "P.TC-NS"
    },
    {
      "username": "tt_bang",
      "password": "123456",
      "email": "bang.tt@pvgasd.com.vn",
      "role": "TPB",
      "active": true,
      "firstName": "Trần",
      "lastName": "Thanh Bằng ",
      "workPlace": "P.ĐT"
    },
    {
      "username": "nv_thanh",
      "password": "123456",
      "email": "thanh.nv@pvgasd.com.vn",
      "role": "NV",
      "active": true,
      "firstName": "Nguyễn",
      "lastName": "Văn Thảnh",
      "workPlace": "P.ĐT"
    },
    {
      "username": "nq_chi",
      "password": "123456",
      "email": "chi.nq@pvgasd.com.vn",
      "role": "TPB",
      "active": true,
      "firstName": "Nguyễn",
      "lastName": "Quốc Chí - TB",
      "workPlace": "B.QLTN"
    },
    {
      "username": "ct_manh",
      "password": "123456",
      "email": "nhatthienlong1602@yahoo.com ",
      "role": "NV",
      "active": true,
      "firstName": "Chu",
      "lastName": "Tiến Mạnh",
      "workPlace": "B.QLTN"
    },
    {
      "username": "tq_tuan",
      "password": "123456",
      "email": "tuan.tq@pvgasd.com.vn",
      "role": "TPB",
      "active": true,
      "firstName": "Trần",
      "lastName": "Quốc Tuấn ",
      "workPlace": "B.NCTTKBB"
    },
    {
      "username": "pt_dinh",
      "password": "123456",
      "email": "dinh.pt@pvgasd.com.vn",
      "role": "TPB",
      "active": true,
      "firstName": "Phạm",
      "lastName": "Tất Đính ",
      "workPlace": "Đ.HTSX"
    },
    {
      "username": "nd_binh",
      "password": "123456",
      "email": "binh.nd@pvgasd.com.vn",
      "role": "NV",
      "active": true,
      "firstName": "Nguyễn",
      "lastName": "Duy Bình",
      "workPlace": "Đ.HTSX"
    },
    {
      "username": "nt_thong",
      "password": "123456",
      "email": "thong.tt@pvgasd.com.vn",
      "role": "GDDV",
      "active": true,
      "firstName": "Nguyễn",
      "lastName": "Trọng Thông ",
      "workPlace": "XNVT"
    },
    {
      "username": "tt_anh",
      "password": "123456",
      "email": "anh.tt@pvgasd.com.vn",
      "role": "TP",
      "active": true,
      "firstName": "Trần",
      "lastName": "Tuấn Anh",
      "workPlace": "XNVT"
    },
    {
      "username": "ltt_mai",
      "password": "123456",
      "email": "mai.ltt@pvgasd.com.vn",
      "role": "NV",
      "active": true,
      "firstName": "Lê",
      "lastName": "Thị Tuyết Mai",
      "workPlace": "XNVT"
    },
    {
      "username": "nn_luong",
      "password": "123456",
      "email": "luong.nn@pvgasd.com.vn",
      "role": "NV",
      "active": true,
      "firstName": "Nguyễn",
      "lastName": "Ngọc Lương",
      "workPlace": "XNVT"
    },
    {
      "username": "nnq_toan",
      "password": "123456",
      "email": "toan.nnq@pvgasd.com.vn",
      "role": "GDDV",
      "active": true,
      "firstName": "Nguyễn",
      "lastName": "Nhật Quốc Toản ",
      "workPlace": "XNNT"
    },
    {
      "username": "vt_anh",
      "password": "123456",
      "email": "anh.vt@pvgasd.com.vn",
      "role": "TP",
      "active": true,
      "firstName": "Vũ",
      "lastName": "Tuấn Anh",
      "workPlace": "XNNT"
    },
    {
      "username": "hs_vu",
      "password": "123456",
      "email": "bumvu0209@gmail.com ",
      "role": "NV",
      "active": true,
      "firstName": "Hồ",
      "lastName": "Sĩ Vũ",
      "workPlace": "XNNT"
    },
    {
      "username": "lh_dai",
      "password": "123456",
      "email": "huudai.01192@gmail.com ",
      "role": "NV",
      "active": true,
      "firstName": "Lê",
      "lastName": "Hữu Đại",
      "workPlace": "XNNT"
    },
    {
      "username": "np_thai",
      "password": "123456",
      "email": "thai.np@pvgasd.com.vn",
      "role": "GDDV",
      "active": true,
      "firstName": "Nguyễn",
      "lastName": "Phong Thái ",
      "workPlace": "XNMB"
    },
    {
      "username": "nc_binh",
      "password": "123456",
      "email": "binh.nc@pvgasd.com.vn",
      "role": "TP",
      "active": true,
      "firstName": "Nguyễn",
      "lastName": "Công Bình",
      "workPlace": "XNMB"
    },
    {
      "username": "ha_dung",
      "password": "123456",
      "email": "dung.ha@pvgasd.com.vn",
      "role": "NV",
      "active": true,
      "firstName": "Hà",
      "lastName": "Anh Dũng",
      "workPlace": "XNMB"
    },
    {
      "username": "tq_huy",
      "password": "123456",
      "email": "huy.tq@pvgasd.com.vn",
      "role": "NV",
      "active": true,
      "firstName": "Trần",
      "lastName": "Quang Huy",
      "workPlace": "XNMB"
    }
  ]
}